-------------------------------------------------------------------------------
Test set: com.team2.dataset.validator.TestMCC_MNCValidator
-------------------------------------------------------------------------------
Tests run: 6, Failures: 0, Errors: 0, Skipped: 0, Time elapsed: 0.01 sec
