-------------------------------------------------------------------------------
Test set: com.team2.dataset.businesslogic.TestDatasetWS
-------------------------------------------------------------------------------
Tests run: 9, Failures: 0, Errors: 0, Skipped: 0, Time elapsed: 0.026 sec
